 line   address	contents
    1                      ; Linked by DLX-LD.
    2                      ; MemSize 24576
    3                      ; Data size: 165
    4                      ; Text size: 4368
    5                      ; Stack size: 8192
    6  00000000          	.text 0x1000
    7  00001000          	.data 0x3000
    8                      ; Compiled by GCC
    9  00003000          	.text
   10  00001000          	.align 2
   11  00001000          	.proc _isspace
   12  00001000          	.global _isspace
   13  00001000          	_isspace:
   14                      ;  Function 'isspace'; 0 bytes of locals, 1 regs to save.
   15  00001000  afbefffc	sw	-4(r29),r30; push fp
   16  00001004  001df020	add	r30,r0,r29; fp = sp
   17  00001008  afbffff8	sw	-8(r29),r31; push ret addr
   18  0000100c  2fbd0010	subui	r29,r29,#16; alloc local storage
   19  00001010  afa20000	sw	0(r29),r2
   20  00001014  83c20003	lb	r2,3(r30)
   21  00001018  201f0000	addi	r31,r0,#0
   22  0000101c  304100ff	andi	r1,r2,#0x00ff
   23  00001020  60210020	seqi	r1,r1,#32
   24  00001024  14200018	bnez	r1,L6_LF0
   25  00001028  54000000	nop; not filled.
   26  0000102c  2041fff7	addi	r1,r2,#-9
   27  00001030  302100ff	andi	r1,r1,#0x00ff
   28  00001034  70210001	sleui	r1,r1,#1
   29  00001038  10200008	beqz	r1,L5_LF0
   30  0000103c  54000000	nop; not filled.
   31  00001040          	L6_LF0:
   32  00001040  201f0001	addi	r31,r0,#1
   33  00001044          	L5_LF0:
   34  00001044  001f0820	add	r1,r0,r31
   35  00001048  8fa20000	lw	r2,0(r29)
   36  0000104c  8fdffff8	lw	r31,-8(r30)
   37  00001050  001ee820	add	r29,r0,r30
   38  00001054  8fdefffc	lw	r30,-4(r30)
   39  00001058  4be00000	jr	r31
   40  0000105c  54000000	nop
   41  00001060          	.endproc _isspace
   42  00001060          	.align 2
   43  00001060          	.proc _isxdigit
   44  00001060          	.global _isxdigit
   45  00001060          	_isxdigit:
   46                      ;  Function 'isxdigit'; 0 bytes of locals, 1 regs to save.
   47  00001060  afbefffc	sw	-4(r29),r30; push fp
   48  00001064  001df020	add	r30,r0,r29; fp = sp
   49  00001068  afbffff8	sw	-8(r29),r31; push ret addr
   50  0000106c  2fbd0010	subui	r29,r29,#16; alloc local storage
   51  00001070  afa20000	sw	0(r29),r2
   52  00001074  83df0003	lb	r31,3(r30)
   53  00001078  20020000	addi	r2,r0,#0
   54  0000107c  23e1ffd0	addi	r1,r31,#-48
   55  00001080  302100ff	andi	r1,r1,#0x00ff
   56  00001084  70210009	sleui	r1,r1,#9
   57  00001088  14200028	bnez	r1,L12_LF0
   58  0000108c  54000000	nop; not filled.
   59  00001090  23e1ff9f	addi	r1,r31,#-97
   60  00001094  302100ff	andi	r1,r1,#0x00ff
   61  00001098  70210005	sleui	r1,r1,#5
   62  0000109c  14200014	bnez	r1,L12_LF0
   63  000010a0  54000000	nop; not filled.
   64  000010a4  33e100ff	andi	r1,r31,#0x00ff
   65  000010a8  64210041	snei	r1,r1,#65
   66  000010ac  14200008	bnez	r1,L11_LF0
   67  000010b0  54000000	nop; not filled.
   68  000010b4          	L12_LF0:
   69  000010b4  20020001	addi	r2,r0,#1
   70  000010b8          	L11_LF0:
   71  000010b8  00020820	add	r1,r0,r2
   72  000010bc  8fa20000	lw	r2,0(r29)
   73  000010c0  8fdffff8	lw	r31,-8(r30)
   74  000010c4  001ee820	add	r29,r0,r30
   75  000010c8  8fdefffc	lw	r30,-4(r30)
   76  000010cc  4be00000	jr	r31
   77  000010d0  54000000	nop
   78  000010d4          	.endproc _isxdigit
   79  000010d4          	.data
   80  00003000          	.align 2
   81  00003000          	LC0_LF0:
   82  00003000  55736167	.ascii "Usage: %s <handle_to_procs_completed_semaphore>\n\000"
   82  00003004  653a2025	
   82  00003008  73203c68	
   82  0000300c  616e646c	
   82  00003010  655f746f	
   82  00003014  5f70726f	
   82  00003018  63735f63	
   82  0000301c  6f6d706c	
   82  00003020  65746564	
   82  00003024  5f73656d	
   82  00003028  6170686f	
   82  0000302c  72653e0a	
   82  00003030  00      	
   83  00003031          	.align 2
   84  00003034          	LC1_LF0:
   85  00003034  68656c6c	.ascii "hello_world (%d): Bad semaphore s_procs_completed (%d)!\n\000"
   85  00003038  6f5f776f	
   85  0000303c  726c6420	
   85  00003040  28256429	
   85  00003044  3a204261	
   85  00003048  64207365	
   85  0000304c  6d617068	
   85  00003050  6f726520	
   85  00003054  735f7072	
   85  00003058  6f63735f	
   85  0000305c  636f6d70	
   85  00003060  6c657465	
   85  00003064  64202825	
   85  00003068  6429210a	
   85  0000306c  00      	
   86  0000306d          	.align 2
   87  00003070          	LC2_LF0:
   88  00003070  436f6e74	.ascii "Content in %x = %d\n\000"
   88  00003074  656e7420	
   88  00003078  696e2025	
   88  0000307c  78203d20	
   88  00003080  25640a00	
   89  00003084          	.align 2
   90  00003084          	LC3_LF0:
   91  00003084  6265796f	.ascii "beyond_max_vir_addr (%d): Done!\n\000"
   91  00003088  6e645f6d	
   91  0000308c  61785f76	
   91  00003090  69725f61	
   91  00003094  64647220	
   91  00003098  28256429	
   91  0000309c  3a20446f	
   91  000030a0  6e65210a	
   91  000030a4  00      	
   92  000030a5          	.text
   93  000010d4          	.align 2
   94  000010d4          	.proc _main
   95  000010d4          	.global _main
   96  000010d4          	_main:
   97                      ;  Function 'main'; 0 bytes of locals, 0 regs to save.
   98  000010d4  afbefffc	sw	-4(r29),r30; push fp
   99  000010d8  001df020	add	r30,r0,r29; fp = sp
  100  000010dc  afbffff8	sw	-8(r29),r31; push ret addr
  101  000010e0  2fbd0008	subui	r29,r29,#8; alloc local storage
  102  000010e4  8fc20000	lw	r2,(r30)
  103  000010e8  8fc30004	lw	r3,4(r30)
  104  000010ec  0c00100c	jal	___main
  105  000010f0  54000000	nop; not filled.
  106  000010f4  64410002	snei	r1,r2,#2
  107  000010f8  10200028	beqz	r1,L17_LF0
  108  000010fc  54000000	nop; not filled.
  109  00001100  23bdfff8	addi	r29,r29,#-8
  110  00001104  3c040000	lhi	r4,((LC0_LF0)>>16)&0xffff
  111  00001108  24843000	addui	r4,r4,(LC0_LF0)&0xffff
  112  0000110c  afa40000	sw	(r29),r4
  113  00001110  0c000128	jal	_Printf
  114  00001114  54000000	nop; not filled.
  115  00001118  0c000228	jal	_Exit
  116  0000111c  54000000	nop; not filled.
  117  00001120  23bd0008	addi	r29,r29,#8
  118  00001124          	L17_LF0:
  119  00001124  23bdfff0	addi	r29,r29,#-16
  120  00001128  8c630004	lw	r3,4(r3)
  121  0000112c  afa30000	sw	(r29),r3
  122  00001130  20040000	addi	r4,r0,#0
  123  00001134  afa40004	sw	4(r29),r4
  124  00001138  2004000a	addi	r4,r0,#10
  125  0000113c  afa40008	sw	8(r29),r4
  126  00001140  0c000abc	jal	_dstrtol
  127  00001144  54000000	nop; not filled.
  128  00001148  00011020	add	r2,r0,r1
  129  0000114c  afa20000	sw	(r29),r2
  130  00001150  0c00013c	jal	_sem_signal
  131  00001154  54000000	nop; not filled.
  132  00001158  23bd0010	addi	r29,r29,#16
  133  0000115c  64210001	snei	r1,r1,#1
  134  00001160  10200038	beqz	r1,L18_LF0
  135  00001164  54000000	nop; not filled.
  136  00001168  0c0000dc	jal	_getpid
  137  0000116c  54000000	nop; not filled.
  138  00001170  23bdfff0	addi	r29,r29,#-16
  139  00001174  3c040000	lhi	r4,((LC1_LF0)>>16)&0xffff
  140  00001178  24843034	addui	r4,r4,(LC1_LF0)&0xffff
  141  0000117c  afa40000	sw	(r29),r4
  142  00001180  afa10004	sw	4(r29),r1
  143  00001184  afa20008	sw	8(r29),r2
  144  00001188  0c0000b0	jal	_Printf
  145  0000118c  54000000	nop; not filled.
  146  00001190  0c0001b0	jal	_Exit
  147  00001194  54000000	nop; not filled.
  148  00001198  23bd0010	addi	r29,r29,#16
  149  0000119c          	L18_LF0:
  150  0000119c  3c010040	lhi	r1,#64
  151  000011a0  24210000	addui	r1,r1,#0
  152  000011a4  23bdfff0	addi	r29,r29,#-16
  153  000011a8  3c040000	lhi	r4,((LC2_LF0)>>16)&0xffff
  154  000011ac  24843070	addui	r4,r4,(LC2_LF0)&0xffff
  155  000011b0  afa40000	sw	(r29),r4
  156  000011b4  afa10004	sw	4(r29),r1
  157  000011b8  8c210000	lw	r1,(r1)
  158  000011bc  afa10008	sw	8(r29),r1
  159  000011c0  0c000f40	jal	_printf
  160  000011c4  54000000	nop; not filled.
  161  000011c8  0c00007c	jal	_getpid
  162  000011cc  54000000	nop; not filled.
  163  000011d0  3c040000	lhi	r4,((LC3_LF0)>>16)&0xffff
  164  000011d4  24843084	addui	r4,r4,(LC3_LF0)&0xffff
  165  000011d8  afa40000	sw	(r29),r4
  166  000011dc  afa10004	sw	4(r29),r1
  167  000011e0  0c000058	jal	_Printf
  168  000011e4  54000000	nop; not filled.
  169  000011e8  23bd0010	addi	r29,r29,#16
  170  000011ec  0c000f00	jal	_exit
  171  000011f0  54000000	nop
  172  000011f4          	.endproc _main
  173                      ;;;
  174                      ;;; Stub functions for DLX traps.
  175                      ;;;
  176                      ;;; Ethan L. Miller, 1999.  Released to the public domain.
  177                      ;;;
  178                      ;;; The traps such as Open and Close
  179                      ;;; (note the capital letters) are for use by user programs.  The traps
  180                      ;;; with names such as open and close (lower case) are for use by the OS.
  181                      ;;;
  184  000011f4          	.align 2
  186                      ;;; The following are the traps to be used by user-level programs
  187                      ;;;
  189  000011f4          	.align 2
  190  000011f4          	.proc _Open
  191  000011f4          	.global _Open
  192  000011f4          	_Open:
  193                      ;;; Note that trap #0x213 actually causes a trap vector in the OS of
  194                      ;;; 0x1213.  The same is true for other user traps.  Thus, a user trap
  195                      ;;; with trap #0x240 will result in a trap vector of 0x1240 in the OS.
  196  000011f4  44000213	trap	#0x213
  197  000011f8  4be00000	jr	r31
  198  000011fc  54000000	nop
  199  00001200          	.endproc _Open
  201  00001200          	.proc _Close
  202  00001200          	.global _Close
  203  00001200          	_Close:
  204  00001200  44000214	trap	#0x214
  205  00001204  4be00000	jr	r31
  206  00001208  54000000	nop
  207  0000120c          	.endproc _Close
  209  0000120c          	.proc _Read
  210  0000120c          	.global _Read
  211  0000120c          	_Read:
  212  0000120c  44000210	trap	#0x210
  213  00001210  4be00000	jr	r31
  214  00001214  54000000	nop
  215  00001218          	.endproc _Read
  217  00001218          	.proc _Write
  218  00001218          	.global _Write
  219  00001218          	_Write:
  220  00001218  44000211	trap	#0x211
  221  0000121c  4be00000	jr	r31
  222  00001220  54000000	nop
  223  00001224          	.endproc _Write
  225  00001224          	.proc _Lseek
  226  00001224          	.global _Lseek
  227  00001224          	_Lseek:
  228  00001224  44000212	trap	#0x212
  229  00001228  4be00000	jr	r31
  230  0000122c  54000000	nop
  231  00001230          	.endproc _Lseek
  233  00001230          	.proc _Putchar
  234  00001230          	.global _Putchar
  235  00001230          	_Putchar:
  236  00001230  44000280	trap	#0x280
  237  00001234  4be00000	jr	r31
  238  00001238  54000000	nop
  239  0000123c          	.endproc _Putchar
  241  0000123c          	.proc _Printf
  242  0000123c          	.global _Printf
  243  0000123c          	_Printf:
  244  0000123c  44000201	trap	#0x201
  245  00001240  4be00000	jr	r31
  246  00001244  54000000	nop
  247  00001248          	.endproc _Printf
  249  00001248          	.proc _getpid
  250  00001248          	.global _getpid
  251  00001248          	_getpid:
  252  00001248  44000431	trap	#0x431
  253  0000124c  4be00000	jr	r31
  254  00001250  54000000	nop
  255  00001254          	.endproc _getpid
  257  00001254          	.proc _process_create
  258  00001254          	.global _process_create
  259  00001254          	_process_create:
  260  00001254  44000432	trap	#0x432
  261  00001258  4be00000	jr	r31
  262  0000125c  54000000	nop
  263  00001260          	.endproc _process_create
  265  00001260          	.proc _shmget
  266  00001260          	.global _shmget
  267  00001260          	_shmget:
  268  00001260  44000440	trap	#0x440
  269  00001264  4be00000	jr	r31
  270  00001268  54000000	nop
  271  0000126c          	.endproc _shmget
  273  0000126c          	.proc _shmat
  274  0000126c          	.global _shmat
  275  0000126c          	_shmat:
  276  0000126c  44000441	trap	#0x441
  277  00001270  4be00000	jr	r31
  278  00001274  54000000	nop
  279  00001278          	.endproc _shmat
  281  00001278          	.proc _sem_create
  282  00001278          	.global _sem_create
  283  00001278          	_sem_create:
  284  00001278  44000450	trap	#0x450
  285  0000127c  4be00000	jr	r31
  286  00001280  54000000	nop
  287  00001284          	.endproc _sem_create
  289  00001284          	.proc _sem_wait
  290  00001284          	.global _sem_wait
  291  00001284          	_sem_wait:
  292  00001284  44000451	trap	#0x451
  293  00001288  4be00000	jr	r31
  294  0000128c  54000000	nop
  295  00001290          	.endproc _sem_wait
  297  00001290          	.proc _sem_signal
  298  00001290          	.global _sem_signal
  299  00001290          	_sem_signal:
  300  00001290  44000452	trap	#0x452
  301  00001294  4be00000	jr	r31
  302  00001298  54000000	nop
  303  0000129c          	.endproc _sem_signal
  305  0000129c          	.proc _lock_create
  306  0000129c          	.global _lock_create
  307  0000129c          	_lock_create:
  308  0000129c  44000453	trap	#0x453
  309  000012a0  4be00000	jr	r31
  310  000012a4  54000000	nop
  311  000012a8          	.endproc _lock_create
  313  000012a8          	.proc _lock_acquire
  314  000012a8          	.global _lock_acquire
  315  000012a8          	_lock_acquire:
  316  000012a8  44000454	trap	#0x454
  317  000012ac  4be00000	jr	r31
  318  000012b0  54000000	nop
  319  000012b4          	.endproc _lock_acquire
  321  000012b4          	.proc _lock_release
  322  000012b4          	.global _lock_release
  323  000012b4          	_lock_release:
  324  000012b4  44000455	trap	#0x455
  325  000012b8  4be00000	jr	r31
  326  000012bc  54000000	nop
  327  000012c0          	.endproc _lock_release
  329  000012c0          	.proc _cond_create
  330  000012c0          	.global _cond_create
  331  000012c0          	_cond_create:
  332  000012c0  44000456	trap	#0x456
  333  000012c4  4be00000	jr	r31
  334  000012c8  54000000	nop
  335  000012cc          	.endproc _cond_create
  337  000012cc          	.proc _cond_wait
  338  000012cc          	.global _cond_wait
  339  000012cc          	_cond_wait:
  340  000012cc  44000457	trap	#0x457
  341  000012d0  4be00000	jr	r31
  342  000012d4  54000000	nop
  343  000012d8          	.endproc _cond_wait
  345  000012d8          	.proc _cond_signal
  346  000012d8          	.global _cond_signal
  347  000012d8          	_cond_signal:
  348  000012d8  44000458	trap	#0x458
  349  000012dc  4be00000	jr	r31
  350  000012e0  54000000	nop
  351  000012e4          	.endproc _cond_signal
  353  000012e4          	.proc _cond_broadcast
  354  000012e4          	.global _cond_broadcast
  355  000012e4          	_cond_broadcast:
  356  000012e4  44000459	trap	#0x459
  357  000012e8  4be00000	jr	r31
  358  000012ec  54000000	nop
  359  000012f0          	.endproc _cond_broadcast
  361  000012f0          	.proc _mbox_create
  362  000012f0          	.global _mbox_create
  363  000012f0          	_mbox_create:
  364  000012f0  44000460	trap	#0x460
  365  000012f4  4be00000	jr	r31
  366  000012f8  54000000	nop
  367  000012fc          	.endproc _mbox_create
  369  000012fc          	.proc _mbox_open
  370  000012fc          	.global _mbox_open
  371  000012fc          	_mbox_open:
  372  000012fc  44000461	trap	#0x461
  373  00001300  4be00000	jr	r31
  374  00001304  54000000	nop
  375  00001308          	.endproc _mbox_open
  377  00001308          	.proc _mbox_close
  378  00001308          	.global _mbox_close
  379  00001308          	_mbox_close:
  380  00001308  44000462	trap	#0x462
  381  0000130c  4be00000	jr	r31
  382  00001310  54000000	nop
  383  00001314          	.endproc _mbox_close
  385  00001314          	.proc _mbox_send
  386  00001314          	.global _mbox_send
  387  00001314          	_mbox_send:
  388  00001314  44000463	trap	#0x463
  389  00001318  4be00000	jr	r31
  390  0000131c  54000000	nop
  391  00001320          	.endproc _mbox_send
  393  00001320          	.proc _mbox_recv
  394  00001320          	.global _mbox_recv
  395  00001320          	_mbox_recv:
  396  00001320  44000464	trap	#0x464
  397  00001324  4be00000	jr	r31
  398  00001328  54000000	nop
  399  0000132c          	.endproc _mbox_recv
  401  0000132c          	.proc _sleep
  402  0000132c          	.global _sleep
  403  0000132c          	_sleep:
  404  0000132c  44000465	trap	#0x465
  405  00001330  4be00000	jr	r31
  406  00001334  54000000	nop
  407  00001338          	.endproc _sleep
  409  00001338          	.proc _yield
  410  00001338          	.global _yield
  411  00001338          	_yield:
  412  00001338  44000466	trap	#0x466
  413  0000133c  4be00000	jr	r31
  414  00001340  54000000	nop
  415  00001344          	.endproc _yield
  418  00001344          	.proc _Exit
  419  00001344          	.global _Exit
  420  00001344          	_Exit:
  421  00001344  44000500	trap	#0x500
  422  00001348  4be00000	jr	r31
  423  0000134c  54000000	nop
  424  00001350          	.endproc _Exit
  427  00001350          	.proc _malloc
  428  00001350          	.global _malloc
  429  00001350          	_malloc:
  430  00001350  44000467	trap	#0x467
  431  00001354  4be00000	jr	r31
  432  00001358          	.endproc _malloc
  435  00001358          	.proc _mfree
  436  00001358          	.global _mfree
  437  00001358          	_mfree:
  438  00001358  44000468	trap	#0x468
  439  0000135c  4be00000	jr	r31
  440  00001360          	.endproc _mfree
  441                      ; Compiled by GCC
  443  00001360          	.align 2
  444  00001360          	.proc _isspace
  445  00001360          	.global _isspace
  446  00001360          	_isspace:
  447                      ;  Function 'isspace'; 0 bytes of locals, 3 regs to save.
  448  00001360  afbefffc	sw	-4(r29),r30; push fp
  449  00001364  001df020	add	r30,r0,r29; fp = sp
  450  00001368  afbffff8	sw	-8(r29),r31; push ret addr
  451  0000136c  2fbd0018	subui	r29,r29,#24; alloc local storage
  452  00001370  afa20000	sw	0(r29),r2
  453  00001374  afa30004	sw	4(r29),r3
  454  00001378  afa40008	sw	8(r29),r4
  455  0000137c  83c20003	lb	r2,3(r30)
  456  00001380  20010000	addi	r1,r0,#0
  457  00001384  304300ff	andi	r3,r2,#0x00ff
  458  00001388  60640020	seqi	r4,r3,#32
  459  0000138c  1480002c	bnez	r4,L3_LF2
  460  00001390  54000000	nop; delay slot nop
  461  00001394  304300ff	andi	r3,r2,#0x00ff
  462  00001398  60640009	seqi	r4,r3,#9
  463  0000139c  1480001c	bnez	r4,L3_LF2
  464  000013a0  54000000	nop; delay slot nop
  465  000013a4  304300ff	andi	r3,r2,#0x00ff
  466  000013a8  6064000a	seqi	r4,r3,#10
  467  000013ac  1480000c	bnez	r4,L3_LF2
  468  000013b0  54000000	nop; delay slot nop
  469  000013b4  08000008	j	L2_LF2
  470  000013b8  54000000	nop; delay slot nop
  471  000013bc          	L3_LF2:
  472  000013bc  20010001	addi	r1,r0,#1
  473  000013c0          	L2_LF2:
  474  000013c0  08000004	j	L1_LF2
  475  000013c4  54000000	nop; delay slot nop
  476  000013c8          	L1_LF2:
  477  000013c8  8fa20000	lw	r2,0(r29)
  478  000013cc  8fa30004	lw	r3,4(r29)
  479  000013d0  8fa40008	lw	r4,8(r29)
  480  000013d4  8fdffff8	lw	r31,-8(r30)
  481  000013d8  001ee820	add	r29,r0,r30
  482  000013dc  8fdefffc	lw	r30,-4(r30)
  483  000013e0  4be00000	jr	r31
  484  000013e4  54000000	nop
  485  000013e8          	.endproc _isspace
  486  000013e8          	.align 2
  487  000013e8          	.proc _isxdigit
  488  000013e8          	.global _isxdigit
  489  000013e8          	_isxdigit:
  490                      ;  Function 'isxdigit'; 0 bytes of locals, 3 regs to save.
  491  000013e8  afbefffc	sw	-4(r29),r30; push fp
  492  000013ec  001df020	add	r30,r0,r29; fp = sp
  493  000013f0  afbffff8	sw	-8(r29),r31; push ret addr
  494  000013f4  2fbd0018	subui	r29,r29,#24; alloc local storage
  495  000013f8  afa20000	sw	0(r29),r2
  496  000013fc  afa30004	sw	4(r29),r3
  497  00001400  afa40008	sw	8(r29),r4
  498  00001404  83c20003	lb	r2,3(r30)
  499  00001408  20010000	addi	r1,r0,#0
  500  0000140c  304300ff	andi	r3,r2,#0x00ff
  501  00001410  6c64002f	sgtui	r4,r3,#47
  502  00001414  1080001c	beqz	r4,L7_LF2
  503  00001418  54000000	nop; delay slot nop
  504  0000141c  304300ff	andi	r3,r2,#0x00ff
  505  00001420  70640039	sleui	r4,r3,#57
  506  00001424  1480005c	bnez	r4,L6_LF2
  507  00001428  54000000	nop; delay slot nop
  508  0000142c  08000004	j	L7_LF2
  509  00001430  54000000	nop; delay slot nop
  510  00001434          	L7_LF2:
  511  00001434  304300ff	andi	r3,r2,#0x00ff
  512  00001438  6c640060	sgtui	r4,r3,#96
  513  0000143c  1080001c	beqz	r4,L8_LF2
  514  00001440  54000000	nop; delay slot nop
  515  00001444  304300ff	andi	r3,r2,#0x00ff
  516  00001448  70640066	sleui	r4,r3,#102
  517  0000144c  14800034	bnez	r4,L6_LF2
  518  00001450  54000000	nop; delay slot nop
  519  00001454  08000004	j	L8_LF2
  520  00001458  54000000	nop; delay slot nop
  521  0000145c          	L8_LF2:
  522  0000145c  304300ff	andi	r3,r2,#0x00ff
  523  00001460  6c640040	sgtui	r4,r3,#64
  524  00001464  10800020	beqz	r4,L5_LF2
  525  00001468  54000000	nop; delay slot nop
  526  0000146c  304300ff	andi	r3,r2,#0x00ff
  527  00001470  70640041	sleui	r4,r3,#65
  528  00001474  1480000c	bnez	r4,L6_LF2
  529  00001478  54000000	nop; delay slot nop
  530  0000147c  08000008	j	L5_LF2
  531  00001480  54000000	nop; delay slot nop
  532  00001484          	L6_LF2:
  533  00001484  20010001	addi	r1,r0,#1
  534  00001488          	L5_LF2:
  535  00001488  08000004	j	L4_LF2
  536  0000148c  54000000	nop; delay slot nop
  537  00001490          	L4_LF2:
  538  00001490  8fa20000	lw	r2,0(r29)
  539  00001494  8fa30004	lw	r3,4(r29)
  540  00001498  8fa40008	lw	r4,8(r29)
  541  0000149c  8fdffff8	lw	r31,-8(r30)
  542  000014a0  001ee820	add	r29,r0,r30
  543  000014a4  8fdefffc	lw	r30,-4(r30)
  544  000014a8  4be00000	jr	r31
  545  000014ac  54000000	nop
  546  000014b0          	.endproc _isxdigit
  547  000014b0          	.align 2
  548  000014b0          	.proc _dstrcpy
  549  000014b0          	.global _dstrcpy
  550  000014b0          	_dstrcpy:
  551                      ;  Function 'dstrcpy'; 8 bytes of locals, 2 regs to save.
  552  000014b0  afbefffc	sw	-4(r29),r30; push fp
  553  000014b4  001df020	add	r30,r0,r29; fp = sp
  554  000014b8  afbffff8	sw	-8(r29),r31; push ret addr
  555  000014bc  2fbd0018	subui	r29,r29,#24; alloc local storage
  556  000014c0  afa20000	sw	0(r29),r2
  557  000014c4  afa30004	sw	4(r29),r3
  558  000014c8  8fc10000	lw	r1,(r30)
  559  000014cc  afc1fff4	sw	-12(r30),r1
  560  000014d0          	L10_LF2:
  561  000014d0  8fc10000	lw	r1,(r30)
  562  000014d4  20220001	addi	r2,r1,#1
  563  000014d8  afc20000	sw	(r30),r2
  564  000014dc  8fc20004	lw	r2,4(r30)
  565  000014e0  20430001	addi	r3,r2,#1
  566  000014e4  afc30004	sw	4(r30),r3
  567  000014e8  80420000	lb	r2,(r2)
  568  000014ec  a0220000	sb	(r1),r2
  569  000014f0  a3c2fff3	sb	-13(r30),r2
  570  000014f4          	L12_LF2:
  571  000014f4  93c1fff3	lbu	r1,-13(r30)
  572  000014f8  64220000	snei	r2,r1,#0
  573  000014fc  1440000c	bnez	r2,L13_LF2
  574  00001500  54000000	nop; delay slot nop
  575  00001504  0800000c	j	L11_LF2
  576  00001508  54000000	nop; delay slot nop
  577  0000150c          	L13_LF2:
  578  0000150c  0bffffc0	j	L10_LF2
  579  00001510  54000000	nop; delay slot nop
  580  00001514          	L11_LF2:
  581  00001514  8fc1fff4	lw	r1,-12(r30)
  582  00001518  08000004	j	L9_LF2
  583  0000151c  54000000	nop; delay slot nop
  584  00001520          	L9_LF2:
  585  00001520  8fa20000	lw	r2,0(r29)
  586  00001524  8fa30004	lw	r3,4(r29)
  587  00001528  8fdffff8	lw	r31,-8(r30)
  588  0000152c  001ee820	add	r29,r0,r30
  589  00001530  8fdefffc	lw	r30,-4(r30)
  590  00001534  4be00000	jr	r31
  591  00001538  54000000	nop
  592  0000153c          	.endproc _dstrcpy
  593  0000153c          	.align 2
  594  0000153c          	.proc _dstrncpy
  595  0000153c          	.global _dstrncpy
  596  0000153c          	_dstrncpy:
  597                      ;  Function 'dstrncpy'; 8 bytes of locals, 2 regs to save.
  598  0000153c  afbefffc	sw	-4(r29),r30; push fp
  599  00001540  001df020	add	r30,r0,r29; fp = sp
  600  00001544  afbffff8	sw	-8(r29),r31; push ret addr
  601  00001548  2fbd0018	subui	r29,r29,#24; alloc local storage
  602  0000154c  afa20000	sw	0(r29),r2
  603  00001550  afa30004	sw	4(r29),r3
  604  00001554  8fc10000	lw	r1,(r30)
  605  00001558  afc1fff4	sw	-12(r30),r1
  606  0000155c          	L15_LF2:
  607  0000155c  8fc10008	lw	r1,8(r30)
  608  00001560  2022ffff	addi	r2,r1,#-1
  609  00001564  afc20008	sw	8(r30),r2
  610  00001568  70210000	slei	r1,r1,#0
  611  0000156c  1020000c	beqz	r1,L18_LF2
  612  00001570  54000000	nop; delay slot nop
  613  00001574  08000048	j	L16_LF2
  614  00001578  54000000	nop; delay slot nop
  615  0000157c          	L18_LF2:
  616  0000157c  8fc10000	lw	r1,(r30)
  617  00001580  20220001	addi	r2,r1,#1
  618  00001584  afc20000	sw	(r30),r2
  619  00001588  8fc20004	lw	r2,4(r30)
  620  0000158c  20430001	addi	r3,r2,#1
  621  00001590  afc30004	sw	4(r30),r3
  622  00001594  80420000	lb	r2,(r2)
  623  00001598  a0220000	sb	(r1),r2
  624  0000159c  a3c2fff3	sb	-13(r30),r2
  625  000015a0          	L17_LF2:
  626  000015a0  93c1fff3	lbu	r1,-13(r30)
  627  000015a4  64220000	snei	r2,r1,#0
  628  000015a8  1440000c	bnez	r2,L19_LF2
  629  000015ac  54000000	nop; delay slot nop
  630  000015b0  0800000c	j	L16_LF2
  631  000015b4  54000000	nop; delay slot nop
  632  000015b8          	L19_LF2:
  633  000015b8  0bffffa0	j	L15_LF2
  634  000015bc  54000000	nop; delay slot nop
  635  000015c0          	L16_LF2:
  636  000015c0  8fc1fff4	lw	r1,-12(r30)
  637  000015c4  08000004	j	L14_LF2
  638  000015c8  54000000	nop; delay slot nop
  639  000015cc          	L14_LF2:
  640  000015cc  8fa20000	lw	r2,0(r29)
  641  000015d0  8fa30004	lw	r3,4(r29)
  642  000015d4  8fdffff8	lw	r31,-8(r30)
  643  000015d8  001ee820	add	r29,r0,r30
  644  000015dc  8fdefffc	lw	r30,-4(r30)
  645  000015e0  4be00000	jr	r31
  646  000015e4  54000000	nop
  647  000015e8          	.endproc _dstrncpy
  648  000015e8          	.align 2
  649  000015e8          	.proc _dstrcat
  650  000015e8          	.global _dstrcat
  651  000015e8          	_dstrcat:
  652                      ;  Function 'dstrcat'; 8 bytes of locals, 1 regs to save.
  653  000015e8  afbefffc	sw	-4(r29),r30; push fp
  654  000015ec  001df020	add	r30,r0,r29; fp = sp
  655  000015f0  afbffff8	sw	-8(r29),r31; push ret addr
  656  000015f4  2fbd0018	subui	r29,r29,#24; alloc local storage
  657  000015f8  afa20000	sw	0(r29),r2
  658  000015fc  8fc10000	lw	r1,(r30)
  659  00001600  afc1fff4	sw	-12(r30),r1
  660  00001604          	L21_LF2:
  661  00001604  8fc10000	lw	r1,(r30)
  662  00001608  90220000	lbu	r2,(r1)
  663  0000160c  64410000	snei	r1,r2,#0
  664  00001610  1420000c	bnez	r1,L23_LF2
  665  00001614  54000000	nop; delay slot nop
  666  00001618  0800001c	j	L22_LF2
  667  0000161c  54000000	nop; delay slot nop
  668  00001620          	L23_LF2:
  669  00001620  8fc20000	lw	r2,(r30)
  670  00001624  20410001	addi	r1,r2,#1
  671  00001628  00011020	add	r2,r0,r1
  672  0000162c  afc20000	sw	(r30),r2
  673  00001630  0bffffd0	j	L21_LF2
  674  00001634  54000000	nop; delay slot nop
  675  00001638          	L22_LF2:
  676  00001638  23bdfff8	addi	r29,r29,#-8
  677  0000163c  001d0820	add	r1,r0,r29
  678  00001640  8fc20000	lw	r2,(r30)
  679  00001644  ac220000	sw	(r1),r2
  680  00001648  8fc20004	lw	r2,4(r30)
  681  0000164c  ac220004	sw	4(r1),r2
  682  00001650  0ffffe5c	jal	_dstrcpy
  683  00001654  54000000	nop; delay slot nop
  684  00001658  23bd0008	addi	r29,r29,#8
  685  0000165c  8fc1fff4	lw	r1,-12(r30)
  686  00001660  08000004	j	L20_LF2
  687  00001664  54000000	nop; delay slot nop
  688  00001668          	L20_LF2:
  689  00001668  8fa20000	lw	r2,0(r29)
  690  0000166c  8fdffff8	lw	r31,-8(r30)
  691  00001670  001ee820	add	r29,r0,r30
  692  00001674  8fdefffc	lw	r30,-4(r30)
  693  00001678  4be00000	jr	r31
  694  0000167c  54000000	nop
  695  00001680          	.endproc _dstrcat
  696  00001680          	.align 2
  697  00001680          	.proc _dstrncmp
  698  00001680          	.global _dstrncmp
  699  00001680          	_dstrncmp:
  700                      ;  Function 'dstrncmp'; 8 bytes of locals, 2 regs to save.
  701  00001680  afbefffc	sw	-4(r29),r30; push fp
  702  00001684  001df020	add	r30,r0,r29; fp = sp
  703  00001688  afbffff8	sw	-8(r29),r31; push ret addr
  704  0000168c  2fbd0018	subui	r29,r29,#24; alloc local storage
  705  00001690  afa20000	sw	0(r29),r2
  706  00001694  afa30004	sw	4(r29),r3
  707  00001698  54000000	nop
  708  0000169c  20010000	addi	r1,r0,#0
  709  000016a0  afc1fff4	sw	-12(r30),r1
  710  000016a4          	L25_LF2:
  711  000016a4  8fc1fff4	lw	r1,-12(r30)
  712  000016a8  8fc20008	lw	r2,8(r30)
  713  000016ac  0022082a	slt	r1,r1,r2
  714  000016b0  1420000c	bnez	r1,L28_LF2
  715  000016b4  54000000	nop; delay slot nop
  716  000016b8  08000088	j	L26_LF2
  717  000016bc  54000000	nop; delay slot nop
  718  000016c0          	L28_LF2:
  719  000016c0  8fc10004	lw	r1,4(r30)
  720  000016c4  90220000	lbu	r2,(r1)
  721  000016c8  64410000	snei	r1,r2,#0
  722  000016cc  14200018	bnez	r1,L29_LF2
  723  000016d0  54000000	nop; delay slot nop
  724  000016d4  20010000	addi	r1,r0,#0
  725  000016d8  080000d8	j	L24_LF2
  726  000016dc  54000000	nop; delay slot nop
  727  000016e0  08000028	j	L30_LF2
  728  000016e4  54000000	nop; delay slot nop
  729  000016e8          	L29_LF2:
  730  000016e8  8fc10000	lw	r1,(r30)
  731  000016ec  8fc20004	lw	r2,4(r30)
  732  000016f0  90210000	lbu	r1,(r1)
  733  000016f4  90420000	lbu	r2,(r2)
  734  000016f8  00220829	sne	r1,r1,r2
  735  000016fc  1020000c	beqz	r1,L30_LF2
  736  00001700  54000000	nop; delay slot nop
  737  00001704  0800003c	j	L26_LF2
  738  00001708  54000000	nop; delay slot nop
  739  0000170c          	L31_LF2:
  740  0000170c          	L30_LF2:
  741  0000170c  8fc20000	lw	r2,(r30)
  742  00001710  20410001	addi	r1,r2,#1
  743  00001714  00011020	add	r2,r0,r1
  744  00001718  afc20000	sw	(r30),r2
  745  0000171c  8fc20004	lw	r2,4(r30)
  746  00001720  20410001	addi	r1,r2,#1
  747  00001724  00011020	add	r2,r0,r1
  748  00001728  afc20004	sw	4(r30),r2
  749  0000172c          	L27_LF2:
  750  0000172c  8fc2fff4	lw	r2,-12(r30)
  751  00001730  20410001	addi	r1,r2,#1
  752  00001734  00011020	add	r2,r0,r1
  753  00001738  afc2fff4	sw	-12(r30),r2
  754  0000173c  0bffff64	j	L25_LF2
  755  00001740  54000000	nop; delay slot nop
  756  00001744          	L26_LF2:
  757  00001744  8fc1fff4	lw	r1,-12(r30)
  758  00001748  8fc20008	lw	r2,8(r30)
  759  0000174c  00220828	seq	r1,r1,r2
  760  00001750  10200018	beqz	r1,L32_LF2
  761  00001754  54000000	nop; delay slot nop
  762  00001758  20010000	addi	r1,r0,#0
  763  0000175c  08000054	j	L24_LF2
  764  00001760  54000000	nop; delay slot nop
  765  00001764  0800004c	j	L33_LF2
  766  00001768  54000000	nop; delay slot nop
  767  0000176c          	L32_LF2:
  768  0000176c  8fc20000	lw	r2,(r30)
  769  00001770  90410000	lbu	r1,(r2)
  770  00001774  8fc20004	lw	r2,4(r30)
  771  00001778  90430000	lbu	r3,(r2)
  772  0000177c  00230822	sub	r1,r1,r3
  773  00001780  74220000	sgei	r2,r1,#0
  774  00001784  10400020	beqz	r2,L34_LF2
  775  00001788  54000000	nop; delay slot nop
  776  0000178c  8fc10000	lw	r1,(r30)
  777  00001790  8fc20004	lw	r2,4(r30)
  778  00001794  90210000	lbu	r1,(r1)
  779  00001798  90420000	lbu	r2,(r2)
  780  0000179c  00220829	sne	r1,r1,r2
  781  000017a0  08000008	j	L35_LF2
  782  000017a4  54000000	nop; delay slot nop
  783  000017a8          	L34_LF2:
  784  000017a8  2001ffff	addi	r1,r0,#-1
  785  000017ac          	L35_LF2:
  786  000017ac  08000004	j	L24_LF2
  787  000017b0  54000000	nop; delay slot nop
  788  000017b4          	L33_LF2:
  789  000017b4          	L24_LF2:
  790  000017b4  8fa20000	lw	r2,0(r29)
  791  000017b8  8fa30004	lw	r3,4(r29)
  792  000017bc  8fdffff8	lw	r31,-8(r30)
  793  000017c0  001ee820	add	r29,r0,r30
  794  000017c4  8fdefffc	lw	r30,-4(r30)
  795  000017c8  4be00000	jr	r31
  796  000017cc  54000000	nop
  797  000017d0          	.endproc _dstrncmp
  798  000017d0          	.align 2
  799  000017d0          	.proc _dstrlen
  800  000017d0          	.global _dstrlen
  801  000017d0          	_dstrlen:
  802                      ;  Function 'dstrlen'; 8 bytes of locals, 1 regs to save.
  803  000017d0  afbefffc	sw	-4(r29),r30; push fp
  804  000017d4  001df020	add	r30,r0,r29; fp = sp
  805  000017d8  afbffff8	sw	-8(r29),r31; push ret addr
  806  000017dc  2fbd0018	subui	r29,r29,#24; alloc local storage
  807  000017e0  afa20000	sw	0(r29),r2
  808  000017e4  20010000	addi	r1,r0,#0
  809  000017e8  afc1fff4	sw	-12(r30),r1
  810  000017ec          	L37_LF2:
  811  000017ec  8fc10000	lw	r1,(r30)
  812  000017f0  20220001	addi	r2,r1,#1
  813  000017f4  afc20000	sw	(r30),r2
  814  000017f8  90210000	lbu	r1,(r1)
  815  000017fc  64220000	snei	r2,r1,#0
  816  00001800  1440000c	bnez	r2,L39_LF2
  817  00001804  54000000	nop; delay slot nop
  818  00001808  0800001c	j	L38_LF2
  819  0000180c  54000000	nop; delay slot nop
  820  00001810          	L39_LF2:
  821  00001810  8fc2fff4	lw	r2,-12(r30)
  822  00001814  20410001	addi	r1,r2,#1
  823  00001818  00011020	add	r2,r0,r1
  824  0000181c  afc2fff4	sw	-12(r30),r2
  825  00001820  0bffffc8	j	L37_LF2
  826  00001824  54000000	nop; delay slot nop
  827  00001828          	L38_LF2:
  828  00001828  8fc1fff4	lw	r1,-12(r30)
  829  0000182c  08000004	j	L36_LF2
  830  00001830  54000000	nop; delay slot nop
  831  00001834          	L36_LF2:
  832  00001834  8fa20000	lw	r2,0(r29)
  833  00001838  8fdffff8	lw	r31,-8(r30)
  834  0000183c  001ee820	add	r29,r0,r30
  835  00001840  8fdefffc	lw	r30,-4(r30)
  836  00001844  4be00000	jr	r31
  837  00001848  54000000	nop
  838  0000184c          	.endproc _dstrlen
  839  0000184c          	.align 2
  840  0000184c          	.proc _dstrstr
  841  0000184c          	.global _dstrstr
  842  0000184c          	_dstrstr:
  843                      ;  Function 'dstrstr'; 8 bytes of locals, 1 regs to save.
  844  0000184c  afbefffc	sw	-4(r29),r30; push fp
  845  00001850  001df020	add	r30,r0,r29; fp = sp
  846  00001854  afbffff8	sw	-8(r29),r31; push ret addr
  847  00001858  2fbd0018	subui	r29,r29,#24; alloc local storage
  848  0000185c  afa20000	sw	0(r29),r2
  849  00001860  23bdfff8	addi	r29,r29,#-8
  850  00001864  001d0820	add	r1,r0,r29
  851  00001868  8fc20004	lw	r2,4(r30)
  852  0000186c  ac220000	sw	(r1),r2
  853  00001870  0fffff5c	jal	_dstrlen
  854  00001874  54000000	nop; delay slot nop
  855  00001878  23bd0008	addi	r29,r29,#8
  856  0000187c  afc1fff4	sw	-12(r30),r1
  857  00001880          	L41_LF2:
  858  00001880  8fc10000	lw	r1,(r30)
  859  00001884  90220000	lbu	r2,(r1)
  860  00001888  64410000	snei	r1,r2,#0
  861  0000188c  1420000c	bnez	r1,L43_LF2
  862  00001890  54000000	nop; delay slot nop
  863  00001894  08000060	j	L42_LF2
  864  00001898  54000000	nop; delay slot nop
  865  0000189c          	L43_LF2:
  866  0000189c  23bdfff0	addi	r29,r29,#-16
  867  000018a0  001d0820	add	r1,r0,r29
  868  000018a4  8fc20000	lw	r2,(r30)
  869  000018a8  ac220000	sw	(r1),r2
  870  000018ac  8fc20004	lw	r2,4(r30)
  871  000018b0  ac220004	sw	4(r1),r2
  872  000018b4  8fc2fff4	lw	r2,-12(r30)
  873  000018b8  ac220008	sw	8(r1),r2
  874  000018bc  0ffffdc0	jal	_dstrncmp
  875  000018c0  54000000	nop; delay slot nop
  876  000018c4  23bd0010	addi	r29,r29,#16
  877  000018c8  64220000	snei	r2,r1,#0
  878  000018cc  14400010	bnez	r2,L44_LF2
  879  000018d0  54000000	nop; delay slot nop
  880  000018d4  8fc10000	lw	r1,(r30)
  881  000018d8  08000028	j	L40_LF2
  882  000018dc  54000000	nop; delay slot nop
  883  000018e0          	L44_LF2:
  884  000018e0  8fc20000	lw	r2,(r30)
  885  000018e4  20410001	addi	r1,r2,#1
  886  000018e8  00011020	add	r2,r0,r1
  887  000018ec  afc20000	sw	(r30),r2
  888  000018f0  0bffff8c	j	L41_LF2
  889  000018f4  54000000	nop; delay slot nop
  890  000018f8          	L42_LF2:
  891  000018f8  20010000	addi	r1,r0,#0
  892  000018fc  08000004	j	L40_LF2
  893  00001900  54000000	nop; delay slot nop
  894  00001904          	L40_LF2:
  895  00001904  8fa20000	lw	r2,0(r29)
  896  00001908  8fdffff8	lw	r31,-8(r30)
  897  0000190c  001ee820	add	r29,r0,r30
  898  00001910  8fdefffc	lw	r30,-4(r30)
  899  00001914  4be00000	jr	r31
  900  00001918  54000000	nop
  901  0000191c          	.endproc _dstrstr
  902  0000191c          	.align 2
  903  0000191c          	.proc _dmindex
  904  0000191c          	.global _dmindex
  905  0000191c          	_dmindex:
  906                      ;  Function 'dmindex'; 8 bytes of locals, 1 regs to save.
  907  0000191c  afbefffc	sw	-4(r29),r30; push fp
  908  00001920  001df020	add	r30,r0,r29; fp = sp
  909  00001924  afbffff8	sw	-8(r29),r31; push ret addr
  910  00001928  2fbd0018	subui	r29,r29,#24; alloc local storage
  911  0000192c  afa20000	sw	0(r29),r2
  912  00001930  54000000	nop
  913  00001934          	L46_LF2:
  914  00001934  8fc10000	lw	r1,(r30)
  915  00001938  90220000	lbu	r2,(r1)
  916  0000193c  64410000	snei	r1,r2,#0
  917  00001940  1420000c	bnez	r1,L48_LF2
  918  00001944  54000000	nop; delay slot nop
  919  00001948  08000070	j	L47_LF2
  920  0000194c  54000000	nop; delay slot nop
  921  00001950          	L48_LF2:
  922  00001950  8fc10004	lw	r1,4(r30)
  923  00001954  afc1fff4	sw	-12(r30),r1
  924  00001958          	L49_LF2:
  925  00001958  8fc1fff4	lw	r1,-12(r30)
  926  0000195c  90220000	lbu	r2,(r1)
  927  00001960  64410000	snei	r1,r2,#0
  928  00001964  1420000c	bnez	r1,L52_LF2
  929  00001968  54000000	nop; delay slot nop
  930  0000196c  08000044	j	L50_LF2
  931  00001970  54000000	nop; delay slot nop
  932  00001974          	L52_LF2:
  933  00001974  8fc10000	lw	r1,(r30)
  934  00001978  8fc2fff4	lw	r2,-12(r30)
  935  0000197c  90210000	lbu	r1,(r1)
  936  00001980  90420000	lbu	r2,(r2)
  937  00001984  00220828	seq	r1,r1,r2
  938  00001988  10200010	beqz	r1,L51_LF2
  939  0000198c  54000000	nop; delay slot nop
  940  00001990  8fc10000	lw	r1,(r30)
  941  00001994  08000030	j	L45_LF2
  942  00001998  54000000	nop; delay slot nop
  943  0000199c          	L53_LF2:
  944  0000199c          	L51_LF2:
  945  0000199c  8fc2fff4	lw	r2,-12(r30)
  946  000019a0  20410001	addi	r1,r2,#1
  947  000019a4  00011020	add	r2,r0,r1
  948  000019a8  afc2fff4	sw	-12(r30),r2
  949  000019ac  0bffffa8	j	L49_LF2
  950  000019b0  54000000	nop; delay slot nop
  951  000019b4          	L50_LF2:
  952  000019b4  0bffff7c	j	L46_LF2
  953  000019b8  54000000	nop; delay slot nop
  954  000019bc          	L47_LF2:
  955  000019bc  20010000	addi	r1,r0,#0
  956  000019c0  08000004	j	L45_LF2
  957  000019c4  54000000	nop; delay slot nop
  958  000019c8          	L45_LF2:
  959  000019c8  8fa20000	lw	r2,0(r29)
  960  000019cc  8fdffff8	lw	r31,-8(r30)
  961  000019d0  001ee820	add	r29,r0,r30
  962  000019d4  8fdefffc	lw	r30,-4(r30)
  963  000019d8  4be00000	jr	r31
  964  000019dc  54000000	nop
  965  000019e0          	.endproc _dmindex
  966  000019e0          	.align 2
  967  000019e0          	.proc _dindex
  968  000019e0          	.global _dindex
  969  000019e0          	_dindex:
  970                      ;  Function 'dindex'; 0 bytes of locals, 1 regs to save.
  971  000019e0  afbefffc	sw	-4(r29),r30; push fp
  972  000019e4  001df020	add	r30,r0,r29; fp = sp
  973  000019e8  afbffff8	sw	-8(r29),r31; push ret addr
  974  000019ec  2fbd0010	subui	r29,r29,#16; alloc local storage
  975  000019f0  afa20000	sw	0(r29),r2
  976  000019f4  54000000	nop
  977  000019f8          	L55_LF2:
  978  000019f8  8fc10000	lw	r1,(r30)
  979  000019fc  90220000	lbu	r2,(r1)
  980  00001a00  64410000	snei	r1,r2,#0
  981  00001a04  1420000c	bnez	r1,L57_LF2
  982  00001a08  54000000	nop; delay slot nop
  983  00001a0c  08000040	j	L56_LF2
  984  00001a10  54000000	nop; delay slot nop
  985  00001a14          	L57_LF2:
  986  00001a14  8fc10000	lw	r1,(r30)
  987  00001a18  90220000	lbu	r2,(r1)
  988  00001a1c  8fc10004	lw	r1,4(r30)
  989  00001a20  00411028	seq	r2,r2,r1
  990  00001a24  10400010	beqz	r2,L58_LF2
  991  00001a28  54000000	nop; delay slot nop
  992  00001a2c  8fc10000	lw	r1,(r30)
  993  00001a30  08000028	j	L54_LF2
  994  00001a34  54000000	nop; delay slot nop
  995  00001a38          	L58_LF2:
  996  00001a38  8fc20000	lw	r2,(r30)
  997  00001a3c  20410001	addi	r1,r2,#1
  998  00001a40  00011020	add	r2,r0,r1
  999  00001a44  afc20000	sw	(r30),r2
 1000  00001a48  0bffffac	j	L55_LF2
 1001  00001a4c  54000000	nop; delay slot nop
 1002  00001a50          	L56_LF2:
 1003  00001a50  20010000	addi	r1,r0,#0
 1004  00001a54  08000004	j	L54_LF2
 1005  00001a58  54000000	nop; delay slot nop
 1006  00001a5c          	L54_LF2:
 1007  00001a5c  8fa20000	lw	r2,0(r29)
 1008  00001a60  8fdffff8	lw	r31,-8(r30)
 1009  00001a64  001ee820	add	r29,r0,r30
 1010  00001a68  8fdefffc	lw	r30,-4(r30)
 1011  00001a6c  4be00000	jr	r31
 1012  00001a70  54000000	nop
 1013  00001a74          	.endproc _dindex
 1014  00001a74          	.align 2
 1015  00001a74          	.proc _ditoa
 1016  00001a74          	.global _ditoa
 1017  00001a74          	_ditoa:
 1018                      ;  Function 'ditoa'; 8 bytes of locals, 2 regs to save.
 1019  00001a74  afbefffc	sw	-4(r29),r30; push fp
 1020  00001a78  001df020	add	r30,r0,r29; fp = sp
 1021  00001a7c  afbffff8	sw	-8(r29),r31; push ret addr
 1022  00001a80  2fbd0018	subui	r29,r29,#24; alloc local storage
 1023  00001a84  afa20000	sw	0(r29),r2
 1024  00001a88  afa30004	sw	4(r29),r3
 1025  00001a8c  8fc10000	lw	r1,(r30)
 1026  00001a90  68220000	slti	r2,r1,#0
 1027  00001a94  1040002c	beqz	r2,L60_LF2
 1028  00001a98  54000000	nop; delay slot nop
 1029  00001a9c  8fc10004	lw	r1,4(r30)
 1030  00001aa0  20220001	addi	r2,r1,#1
 1031  00001aa4  afc20004	sw	4(r30),r2
 1032  00001aa8  2002002d	addi	r2,r0,(#0x2d)&0xff
 1033  00001aac  a0220000	sb	(r1),r2
 1034  00001ab0  8fc10000	lw	r1,(r30)
 1035  00001ab4  00011022	sub	r2,r0,r1
 1036  00001ab8  afc20000	sw	(r30),r2
 1037  00001abc  08000118	j	L61_LF2
 1038  00001ac0  54000000	nop; delay slot nop
 1039  00001ac4          	L60_LF2:
 1040  00001ac4  8fc10000	lw	r1,(r30)
 1041  00001ac8  64220000	snei	r2,r1,#0
 1042  00001acc  14400020	bnez	r2,L62_LF2
 1043  00001ad0  54000000	nop; delay slot nop
 1044  00001ad4  8fc10004	lw	r1,4(r30)
 1045  00001ad8  20220001	addi	r2,r1,#1
 1046  00001adc  afc20004	sw	4(r30),r2
 1047  00001ae0  20020030	addi	r2,r0,(#0x30)&0xff
 1048  00001ae4  a0220000	sb	(r1),r2
 1049  00001ae8  080000ec	j	L61_LF2
 1050  00001aec  54000000	nop; delay slot nop
 1051  00001af0          	L62_LF2:
 1052  00001af0  20010001	addi	r1,r0,#1
 1053  00001af4  afc1fff4	sw	-12(r30),r1
 1054  00001af8          	L64_LF2:
 1055  00001af8  8fc1fff4	lw	r1,-12(r30)
 1056  00001afc  8fc20000	lw	r2,(r30)
 1057  00001b00  0022082c	sle	r1,r1,r2
 1058  00001b04  1420000c	bnez	r1,L66_LF2
 1059  00001b08  54000000	nop; delay slot nop
 1060  00001b0c  08000024	j	L65_LF2
 1061  00001b10  54000000	nop; delay slot nop
 1062  00001b14          	L67_LF2:
 1063  00001b14          	L66_LF2:
 1064  00001b14  8fc1fff4	lw	r1,-12(r30)
 1065  00001b18  00011820	add	r3,r0,r1
 1066  00001b1c  50620002	slli	r2,r3,#0x2
 1067  00001b20  00411020	add	r2,r2,r1
 1068  00001b24  50410001	slli	r1,r2,#0x1
 1069  00001b28  afc1fff4	sw	-12(r30),r1
 1070  00001b2c  0bffffc8	j	L64_LF2
 1071  00001b30  54000000	nop; delay slot nop
 1072  00001b34          	L65_LF2:
 1073  00001b34  54000000	nop
 1074  00001b38          	L68_LF2:
 1075  00001b38  8fc1fff4	lw	r1,-12(r30)
 1076  00001b3c  2002000a	addi	r2,r0,#10
 1077  00001b40  00200035	movi2fp	f0,r1
 1078  00001b44  00400835	movi2fp	f1,r2
 1079  00001b48  0401000f	div	f0,f0,f1
 1080  00001b4c  00000834	movfp2i	r1,f0
 1081  00001b50  afc1fff4	sw	-12(r30),r1
 1082  00001b54  8fc10004	lw	r1,4(r30)
 1083  00001b58  20220001	addi	r2,r1,#1
 1084  00001b5c  afc20004	sw	4(r30),r2
 1085  00001b60  8fc20000	lw	r2,(r30)
 1086  00001b64  8fc3fff4	lw	r3,-12(r30)
 1087  00001b68  00400035	movi2fp	f0,r2
 1088  00001b6c  00600835	movi2fp	f1,r3
 1089  00001b70  0401000f	div	f0,f0,f1
 1090  00001b74  00001034	movfp2i	r2,f0
 1091  00001b78  00021820	add	r3,r0,r2
 1092  00001b7c  20620030	addi	r2,r3,#48
 1093  00001b80  a0220000	sb	(r1),r2
 1094  00001b84  8fc10000	lw	r1,(r30)
 1095  00001b88  8fc3fff4	lw	r3,-12(r30)
 1096  00001b8c  00200035	movi2fp	f0,r1
 1097  00001b90  00600835	movi2fp	f1,r3
 1098  00001b94  0401000f	div	f0,f0,f1
 1099  00001b98  00001034	movfp2i	r2,f0
 1100  00001b9c  8fc3fff4	lw	r3,-12(r30)
 1101  00001ba0  00400035	movi2fp	f0,r2
 1102  00001ba4  00600835	movi2fp	f1,r3
 1103  00001ba8  0401000e	mult	f0,f0,f1
 1104  00001bac  00001034	movfp2i	r2,f0
 1105  00001bb0  00220822	sub	r1,r1,r2
 1106  00001bb4  afc10000	sw	(r30),r1
 1107  00001bb8          	L70_LF2:
 1108  00001bb8  8fc1fff4	lw	r1,-12(r30)
 1109  00001bbc  6c220001	sgti	r2,r1,#1
 1110  00001bc0  1440000c	bnez	r2,L71_LF2
 1111  00001bc4  54000000	nop; delay slot nop
 1112  00001bc8  0800000c	j	L61_LF2
 1113  00001bcc  54000000	nop; delay slot nop
 1114  00001bd0          	L71_LF2:
 1115  00001bd0  0bffff64	j	L68_LF2
 1116  00001bd4  54000000	nop; delay slot nop
 1117  00001bd8          	L69_LF2:
 1118  00001bd8          	L63_LF2:
 1119  00001bd8          	L61_LF2:
 1120  00001bd8  8fc10004	lw	r1,4(r30)
 1121  00001bdc  20020000	addi	r2,r0,(#0x0)&0xff
 1122  00001be0  a0220000	sb	(r1),r2
 1123  00001be4          	L59_LF2:
 1124  00001be4  8fa20000	lw	r2,0(r29)
 1125  00001be8  8fa30004	lw	r3,4(r29)
 1126  00001bec  8fdffff8	lw	r31,-8(r30)
 1127  00001bf0  001ee820	add	r29,r0,r30
 1128  00001bf4  8fdefffc	lw	r30,-4(r30)
 1129  00001bf8  4be00000	jr	r31
 1130  00001bfc  54000000	nop
 1131  00001c00          	.endproc _ditoa
 1132  00001c00          	.align 2
 1133  00001c00          	.proc _dstrtol
 1134  00001c00          	.global _dstrtol
 1135  00001c00          	_dstrtol:
 1136                      ;  Function 'dstrtol'; 16 bytes of locals, 1 regs to save.
 1137  00001c00  afbefffc	sw	-4(r29),r30; push fp
 1138  00001c04  001df020	add	r30,r0,r29; fp = sp
 1139  00001c08  afbffff8	sw	-8(r29),r31; push ret addr
 1140  00001c0c  2fbd0020	subui	r29,r29,#32; alloc local storage
 1141  00001c10  afa20000	sw	0(r29),r2
 1142  00001c14  20010000	addi	r1,r0,#0
 1143  00001c18  afc1fff4	sw	-12(r30),r1
 1144  00001c1c          	L73_LF2:
 1145  00001c1c  8fc10000	lw	r1,(r30)
 1146  00001c20  90220000	lbu	r2,(r1)
 1147  00001c24  60410020	seqi	r1,r2,#32
 1148  00001c28  14200034	bnez	r1,L75_LF2
 1149  00001c2c  54000000	nop; delay slot nop
 1150  00001c30  8fc10000	lw	r1,(r30)
 1151  00001c34  90220000	lbu	r2,(r1)
 1152  00001c38  60410009	seqi	r1,r2,#9
 1153  00001c3c  14200020	bnez	r1,L75_LF2
 1154  00001c40  54000000	nop; delay slot nop
 1155  00001c44  8fc10000	lw	r1,(r30)
 1156  00001c48  90220000	lbu	r2,(r1)
 1157  00001c4c  6041000a	seqi	r1,r2,#10
 1158  00001c50  1420000c	bnez	r1,L75_LF2
 1159  00001c54  54000000	nop; delay slot nop
 1160  00001c58  0800001c	j	L74_LF2
 1161  00001c5c  54000000	nop; delay slot nop
 1162  00001c60          	L75_LF2:
 1163  00001c60  8fc20000	lw	r2,(r30)
 1164  00001c64  20410001	addi	r1,r2,#1
 1165  00001c68  00011020	add	r2,r0,r1
 1166  00001c6c  afc20000	sw	(r30),r2
 1167  00001c70  0bffffa8	j	L73_LF2
 1168  00001c74  54000000	nop; delay slot nop
 1169  00001c78          	L74_LF2:
 1170  00001c78  8fc10004	lw	r1,4(r30)
 1171  00001c7c  64220000	snei	r2,r1,#0
 1172  00001c80  10400010	beqz	r2,L76_LF2
 1173  00001c84  54000000	nop; delay slot nop
 1174  00001c88  8fc10004	lw	r1,4(r30)
 1175  00001c8c  8fc20000	lw	r2,(r30)
 1176  00001c90  ac220000	sw	(r1),r2
 1177  00001c94          	L76_LF2:
 1178  00001c94  8fc10000	lw	r1,(r30)
 1179  00001c98  90220000	lbu	r2,(r1)
 1180  00001c9c  64410000	snei	r1,r2,#0
 1181  00001ca0  14200010	bnez	r1,L77_LF2
 1182  00001ca4  54000000	nop; delay slot nop
 1183  00001ca8  8fc1fff4	lw	r1,-12(r30)
 1184  00001cac  08000294	j	L72_LF2
 1185  00001cb0  54000000	nop; delay slot nop
 1186  00001cb4          	L77_LF2:
 1187  00001cb4  8fc10000	lw	r1,(r30)
 1188  00001cb8  90220000	lbu	r2,(r1)
 1189  00001cbc  6041002d	seqi	r1,r2,#45
 1190  00001cc0  10200024	beqz	r1,L78_LF2
 1191  00001cc4  54000000	nop; delay slot nop
 1192  00001cc8  2001ffff	addi	r1,r0,#-1
 1193  00001ccc  afc1ffec	sw	-20(r30),r1
 1194  00001cd0  8fc20000	lw	r2,(r30)
 1195  00001cd4  20410001	addi	r1,r2,#1
 1196  00001cd8  00011020	add	r2,r0,r1
 1197  00001cdc  afc20000	sw	(r30),r2
 1198  00001ce0  0800000c	j	L79_LF2
 1199  00001ce4  54000000	nop; delay slot nop
 1200  00001ce8          	L78_LF2:
 1201  00001ce8  20010001	addi	r1,r0,#1
 1202  00001cec  afc1ffec	sw	-20(r30),r1
 1203  00001cf0          	L79_LF2:
 1204  00001cf0  8fc10008	lw	r1,8(r30)
 1205  00001cf4  64220000	snei	r2,r1,#0
 1206  00001cf8  14400090	bnez	r2,L80_LF2
 1207  00001cfc  54000000	nop; delay slot nop
 1208  00001d00  8fc10000	lw	r1,(r30)
 1209  00001d04  90220000	lbu	r2,(r1)
 1210  00001d08  60410030	seqi	r1,r2,#48
 1211  00001d0c  10200074	beqz	r1,L81_LF2
 1212  00001d10  54000000	nop; delay slot nop
 1213  00001d14  8fc20000	lw	r2,(r30)
 1214  00001d18  20410001	addi	r1,r2,#1
 1215  00001d1c  00011020	add	r2,r0,r1
 1216  00001d20  afc20000	sw	(r30),r2
 1217  00001d24  8fc10000	lw	r1,(r30)
 1218  00001d28  90220000	lbu	r2,(r1)
 1219  00001d2c  60410078	seqi	r1,r2,#120
 1220  00001d30  14200020	bnez	r1,L83_LF2
 1221  00001d34  54000000	nop; delay slot nop
 1222  00001d38  8fc10000	lw	r1,(r30)
 1223  00001d3c  90220000	lbu	r2,(r1)
 1224  00001d40  60410058	seqi	r1,r2,#88
 1225  00001d44  1420000c	bnez	r1,L83_LF2
 1226  00001d48  54000000	nop; delay slot nop
 1227  00001d4c  08000024	j	L82_LF2
 1228  00001d50  54000000	nop; delay slot nop
 1229  00001d54          	L83_LF2:
 1230  00001d54  20010010	addi	r1,r0,#16
 1231  00001d58  afc10008	sw	8(r30),r1
 1232  00001d5c  8fc20000	lw	r2,(r30)
 1233  00001d60  20410001	addi	r1,r2,#1
 1234  00001d64  00011020	add	r2,r0,r1
 1235  00001d68  afc20000	sw	(r30),r2
 1236  00001d6c  0800000c	j	L84_LF2
 1237  00001d70  54000000	nop; delay slot nop
 1238  00001d74          	L82_LF2:
 1239  00001d74  20010008	addi	r1,r0,#8
 1240  00001d78  afc10008	sw	8(r30),r1
 1241  00001d7c          	L84_LF2:
 1242  00001d7c  0800000c	j	L80_LF2
 1243  00001d80  54000000	nop; delay slot nop
 1244  00001d84          	L81_LF2:
 1245  00001d84  2001000a	addi	r1,r0,#10
 1246  00001d88  afc10008	sw	8(r30),r1
 1247  00001d8c          	L85_LF2:
 1248  00001d8c          	L80_LF2:
 1249  00001d8c  8fc10008	lw	r1,8(r30)
 1250  00001d90  70220000	slei	r2,r1,#0
 1251  00001d94  1440001c	bnez	r2,L87_LF2
 1252  00001d98  54000000	nop; delay slot nop
 1253  00001d9c  8fc10008	lw	r1,8(r30)
 1254  00001da0  6c220010	sgti	r2,r1,#16
 1255  00001da4  1440000c	bnez	r2,L87_LF2
 1256  00001da8  54000000	nop; delay slot nop
 1257  00001dac  08000010	j	L86_LF2
 1258  00001db0  54000000	nop; delay slot nop
 1259  00001db4          	L87_LF2:
 1260  00001db4  8fc1fff4	lw	r1,-12(r30)
 1261  00001db8  08000188	j	L72_LF2
 1262  00001dbc  54000000	nop; delay slot nop
 1263  00001dc0          	L86_LF2:
 1264  00001dc0  54000000	nop
 1265  00001dc4          	L88_LF2:
 1266  00001dc4  8fc10000	lw	r1,(r30)
 1267  00001dc8  90220000	lbu	r2,(r1)
 1268  00001dcc  6c41002f	sgtui	r1,r2,#47
 1269  00001dd0  10200030	beqz	r1,L91_LF2
 1270  00001dd4  54000000	nop; delay slot nop
 1271  00001dd8  8fc10000	lw	r1,(r30)
 1272  00001ddc  90220000	lbu	r2,(r1)
 1273  00001de0  70410039	sleui	r1,r2,#57
 1274  00001de4  1020001c	beqz	r1,L91_LF2
 1275  00001de8  54000000	nop; delay slot nop
 1276  00001dec  8fc10000	lw	r1,(r30)
 1277  00001df0  90220000	lbu	r2,(r1)
 1278  00001df4  2041ffd0	addi	r1,r2,#-48
 1279  00001df8  afc1fff0	sw	-16(r30),r1
 1280  00001dfc  0800008c	j	L92_LF2
 1281  00001e00  54000000	nop; delay slot nop
 1282  00001e04          	L91_LF2:
 1283  00001e04  8fc10000	lw	r1,(r30)
 1284  00001e08  90220000	lbu	r2,(r1)
 1285  00001e0c  6c410060	sgtui	r1,r2,#96
 1286  00001e10  10200030	beqz	r1,L93_LF2
 1287  00001e14  54000000	nop; delay slot nop
 1288  00001e18  8fc10000	lw	r1,(r30)
 1289  00001e1c  90220000	lbu	r2,(r1)
 1290  00001e20  7041007a	sleui	r1,r2,#122
 1291  00001e24  1020001c	beqz	r1,L93_LF2
 1292  00001e28  54000000	nop; delay slot nop
 1293  00001e2c  8fc10000	lw	r1,(r30)
 1294  00001e30  90220000	lbu	r2,(r1)
 1295  00001e34  2041ffa9	addi	r1,r2,#-87
 1296  00001e38  afc1fff0	sw	-16(r30),r1
 1297  00001e3c  0800004c	j	L92_LF2
 1298  00001e40  54000000	nop; delay slot nop
 1299  00001e44          	L93_LF2:
 1300  00001e44  8fc10000	lw	r1,(r30)
 1301  00001e48  90220000	lbu	r2,(r1)
 1302  00001e4c  6c410040	sgtui	r1,r2,#64
 1303  00001e50  10200030	beqz	r1,L95_LF2
 1304  00001e54  54000000	nop; delay slot nop
 1305  00001e58  8fc10000	lw	r1,(r30)
 1306  00001e5c  90220000	lbu	r2,(r1)
 1307  00001e60  7041005a	sleui	r1,r2,#90
 1308  00001e64  1020001c	beqz	r1,L95_LF2
 1309  00001e68  54000000	nop; delay slot nop
 1310  00001e6c  8fc10000	lw	r1,(r30)
 1311  00001e70  90220000	lbu	r2,(r1)
 1312  00001e74  2041ffc9	addi	r1,r2,#-55
 1313  00001e78  afc1fff0	sw	-16(r30),r1
 1314  00001e7c  0800000c	j	L92_LF2
 1315  00001e80  54000000	nop; delay slot nop
 1316  00001e84          	L95_LF2:
 1317  00001e84  200103e8	addi	r1,r0,#1000
 1318  00001e88  afc1fff0	sw	-16(r30),r1
 1319  00001e8c          	L96_LF2:
 1320  00001e8c          	L94_LF2:
 1321  00001e8c          	L92_LF2:
 1322  00001e8c  8fc1fff0	lw	r1,-16(r30)
 1323  00001e90  8fc20008	lw	r2,8(r30)
 1324  00001e94  0022082a	slt	r1,r1,r2
 1325  00001e98  10200040	beqz	r1,L90_LF2
 1326  00001e9c  54000000	nop; delay slot nop
 1327  00001ea0  8fc1fff4	lw	r1,-12(r30)
 1328  00001ea4  8fc20008	lw	r2,8(r30)
 1329  00001ea8  00200035	movi2fp	f0,r1
 1330  00001eac  00400835	movi2fp	f1,r2
 1331  00001eb0  0401000e	mult	f0,f0,f1
 1332  00001eb4  00000834	movfp2i	r1,f0
 1333  00001eb8  afc1fff4	sw	-12(r30),r1
 1334  00001ebc  8fc1fff4	lw	r1,-12(r30)
 1335  00001ec0  8fc2fff0	lw	r2,-16(r30)
 1336  00001ec4  00220820	add	r1,r1,r2
 1337  00001ec8  afc1fff4	sw	-12(r30),r1
 1338  00001ecc  8fc20000	lw	r2,(r30)
 1339  00001ed0  20410001	addi	r1,r2,#1
 1340  00001ed4  00011020	add	r2,r0,r1
 1341  00001ed8  afc20000	sw	(r30),r2
 1342  00001edc          	L97_LF2:
 1343  00001edc          	L90_LF2:
 1344  00001edc  8fc1fff0	lw	r1,-16(r30)
 1345  00001ee0  8fc20008	lw	r2,8(r30)
 1346  00001ee4  0022082a	slt	r1,r1,r2
 1347  00001ee8  1420000c	bnez	r1,L98_LF2
 1348  00001eec  54000000	nop; delay slot nop
 1349  00001ef0  0800000c	j	L89_LF2
 1350  00001ef4  54000000	nop; delay slot nop
 1351  00001ef8          	L98_LF2:
 1352  00001ef8  0bfffec8	j	L88_LF2
 1353  00001efc  54000000	nop; delay slot nop
 1354  00001f00          	L89_LF2:
 1355  00001f00  8fc10004	lw	r1,4(r30)
 1356  00001f04  64220000	snei	r2,r1,#0
 1357  00001f08  10400010	beqz	r2,L99_LF2
 1358  00001f0c  54000000	nop; delay slot nop
 1359  00001f10  8fc10004	lw	r1,4(r30)
 1360  00001f14  8fc20000	lw	r2,(r30)
 1361  00001f18  ac220000	sw	(r1),r2
 1362  00001f1c          	L99_LF2:
 1363  00001f1c  8fc1fff4	lw	r1,-12(r30)
 1364  00001f20  8fc2ffec	lw	r2,-20(r30)
 1365  00001f24  00200035	movi2fp	f0,r1
 1366  00001f28  00400835	movi2fp	f1,r2
 1367  00001f2c  0401000e	mult	f0,f0,f1
 1368  00001f30  00000834	movfp2i	r1,f0
 1369  00001f34  afc1fff4	sw	-12(r30),r1
 1370  00001f38  8fc1fff4	lw	r1,-12(r30)
 1371  00001f3c  08000004	j	L72_LF2
 1372  00001f40  54000000	nop; delay slot nop
 1373  00001f44          	L72_LF2:
 1374  00001f44  8fa20000	lw	r2,0(r29)
 1375  00001f48  8fdffff8	lw	r31,-8(r30)
 1376  00001f4c  001ee820	add	r29,r0,r30
 1377  00001f50  8fdefffc	lw	r30,-4(r30)
 1378  00001f54  4be00000	jr	r31
 1379  00001f58  54000000	nop
 1380  00001f5c          	.endproc _dstrtol
 1381  00001f5c          	.align 2
 1382  00001f5c          	.proc _bcopy
 1383  00001f5c          	.global _bcopy
 1384  00001f5c          	_bcopy:
 1385                      ;  Function 'bcopy'; 0 bytes of locals, 2 regs to save.
 1386  00001f5c  afbefffc	sw	-4(r29),r30; push fp
 1387  00001f60  001df020	add	r30,r0,r29; fp = sp
 1388  00001f64  afbffff8	sw	-8(r29),r31; push ret addr
 1389  00001f68  2fbd0010	subui	r29,r29,#16; alloc local storage
 1390  00001f6c  afa20000	sw	0(r29),r2
 1391  00001f70  afa30004	sw	4(r29),r3
 1392  00001f74  54000000	nop
 1393  00001f78          	L101_LF2:
 1394  00001f78  8fc10008	lw	r1,8(r30)
 1395  00001f7c  2022ffff	addi	r2,r1,#-1
 1396  00001f80  afc20008	sw	8(r30),r2
 1397  00001f84  6c210000	sgti	r1,r1,#0
 1398  00001f88  1420000c	bnez	r1,L103_LF2
 1399  00001f8c  54000000	nop; delay slot nop
 1400  00001f90  0800002c	j	L102_LF2
 1401  00001f94  54000000	nop; delay slot nop
 1402  00001f98          	L103_LF2:
 1403  00001f98  8fc10004	lw	r1,4(r30)
 1404  00001f9c  20220001	addi	r2,r1,#1
 1405  00001fa0  afc20004	sw	4(r30),r2
 1406  00001fa4  8fc20000	lw	r2,(r30)
 1407  00001fa8  20430001	addi	r3,r2,#1
 1408  00001fac  afc30000	sw	(r30),r3
 1409  00001fb0  80420000	lb	r2,(r2)
 1410  00001fb4  a0220000	sb	(r1),r2
 1411  00001fb8  0bffffbc	j	L101_LF2
 1412  00001fbc  54000000	nop; delay slot nop
 1413  00001fc0          	L102_LF2:
 1414  00001fc0          	L100_LF2:
 1415  00001fc0  8fa20000	lw	r2,0(r29)
 1416  00001fc4  8fa30004	lw	r3,4(r29)
 1417  00001fc8  8fdffff8	lw	r31,-8(r30)
 1418  00001fcc  001ee820	add	r29,r0,r30
 1419  00001fd0  8fdefffc	lw	r30,-4(r30)
 1420  00001fd4  4be00000	jr	r31
 1421  00001fd8  54000000	nop
 1422  00001fdc          	.endproc _bcopy
 1423  00001fdc          	.align 2
 1424  00001fdc          	.proc _bzero
 1425  00001fdc          	.global _bzero
 1426  00001fdc          	_bzero:
 1427                      ;  Function 'bzero'; 0 bytes of locals, 1 regs to save.
 1428  00001fdc  afbefffc	sw	-4(r29),r30; push fp
 1429  00001fe0  001df020	add	r30,r0,r29; fp = sp
 1430  00001fe4  afbffff8	sw	-8(r29),r31; push ret addr
 1431  00001fe8  2fbd0010	subui	r29,r29,#16; alloc local storage
 1432  00001fec  afa20000	sw	0(r29),r2
 1433  00001ff0  54000000	nop
 1434  00001ff4          	L105_LF2:
 1435  00001ff4  8fc10004	lw	r1,4(r30)
 1436  00001ff8  2022ffff	addi	r2,r1,#-1
 1437  00001ffc  afc20004	sw	4(r30),r2
 1438  00002000  6c210000	sgti	r1,r1,#0
 1439  00002004  1420000c	bnez	r1,L107_LF2
 1440  00002008  54000000	nop; delay slot nop
 1441  0000200c  08000020	j	L106_LF2
 1442  00002010  54000000	nop; delay slot nop
 1443  00002014          	L107_LF2:
 1444  00002014  8fc10000	lw	r1,(r30)
 1445  00002018  20220001	addi	r2,r1,#1
 1446  0000201c  afc20000	sw	(r30),r2
 1447  00002020  20020000	addi	r2,r0,(#0x0)&0xff
 1448  00002024  a0220000	sb	(r1),r2
 1449  00002028  0bffffc8	j	L105_LF2
 1450  0000202c  54000000	nop; delay slot nop
 1451  00002030          	L106_LF2:
 1452  00002030          	L104_LF2:
 1453  00002030  8fa20000	lw	r2,0(r29)
 1454  00002034  8fdffff8	lw	r31,-8(r30)
 1455  00002038  001ee820	add	r29,r0,r30
 1456  0000203c  8fdefffc	lw	r30,-4(r30)
 1457  00002040  4be00000	jr	r31
 1458  00002044  54000000	nop
 1459  00002048          	.endproc _bzero
 1460  00002048          	.align 2
 1461  00002048          	.proc _min
 1462  00002048          	.global _min
 1463  00002048          	_min:
 1464                      ;  Function 'min'; 0 bytes of locals, 2 regs to save.
 1465  00002048  afbefffc	sw	-4(r29),r30; push fp
 1466  0000204c  001df020	add	r30,r0,r29; fp = sp
 1467  00002050  afbffff8	sw	-8(r29),r31; push ret addr
 1468  00002054  2fbd0010	subui	r29,r29,#16; alloc local storage
 1469  00002058  afa20000	sw	0(r29),r2
 1470  0000205c  afa30004	sw	4(r29),r3
 1471  00002060  8fc10000	lw	r1,(r30)
 1472  00002064  8fc20004	lw	r2,4(r30)
 1473  00002068  0022182c	sle	r3,r1,r2
 1474  0000206c  14600008	bnez	r3,L109_LF2
 1475  00002070  54000000	nop; delay slot nop
 1476  00002074  8fc10004	lw	r1,4(r30)
 1477  00002078          	L109_LF2:
 1478  00002078  08000004	j	L108_LF2
 1479  0000207c  54000000	nop; delay slot nop
 1480  00002080          	L108_LF2:
 1481  00002080  8fa20000	lw	r2,0(r29)
 1482  00002084  8fa30004	lw	r3,4(r29)
 1483  00002088  8fdffff8	lw	r31,-8(r30)
 1484  0000208c  001ee820	add	r29,r0,r30
 1485  00002090  8fdefffc	lw	r30,-4(r30)
 1486  00002094  4be00000	jr	r31
 1487  00002098  54000000	nop
 1488  0000209c          	.endproc _min
 1489  0000209c          	.align 2
 1490  0000209c          	.proc _max
 1491  0000209c          	.global _max
 1492  0000209c          	_max:
 1493                      ;  Function 'max'; 0 bytes of locals, 2 regs to save.
 1494  0000209c  afbefffc	sw	-4(r29),r30; push fp
 1495  000020a0  001df020	add	r30,r0,r29; fp = sp
 1496  000020a4  afbffff8	sw	-8(r29),r31; push ret addr
 1497  000020a8  2fbd0010	subui	r29,r29,#16; alloc local storage
 1498  000020ac  afa20000	sw	0(r29),r2
 1499  000020b0  afa30004	sw	4(r29),r3
 1500  000020b4  8fc10000	lw	r1,(r30)
 1501  000020b8  8fc20004	lw	r2,4(r30)
 1502  000020bc  0022182d	sge	r3,r1,r2
 1503  000020c0  14600008	bnez	r3,L111_LF2
 1504  000020c4  54000000	nop; delay slot nop
 1505  000020c8  8fc10004	lw	r1,4(r30)
 1506  000020cc          	L111_LF2:
 1507  000020cc  08000004	j	L110_LF2
 1508  000020d0  54000000	nop; delay slot nop
 1509  000020d4          	L110_LF2:
 1510  000020d4  8fa20000	lw	r2,0(r29)
 1511  000020d8  8fa30004	lw	r3,4(r29)
 1512  000020dc  8fdffff8	lw	r31,-8(r30)
 1513  000020e0  001ee820	add	r29,r0,r30
 1514  000020e4  8fdefffc	lw	r30,-4(r30)
 1515  000020e8  4be00000	jr	r31
 1516  000020ec  54000000	nop
 1517  000020f0          	.endproc _max
 1518                      ;;; Ethan L. Miller, 1999.  Released to the public domain
 1519                      ;;;
 1520                      ;;; Most of the traps are called in files from libtraps.
 1523  000020f0          	.align 2
 1524  000020f0          	.proc _exit
 1525  000020f0          	.global _exit
 1526  000020f0          	_exit:
 1527  000020f0  44000300	trap	#0x300
 1528  000020f4  4be00000	jr	r31
 1529  000020f8  54000000	nop
 1530  000020fc          	.endproc _exit
 1532                      ; for the benefit of gcc.
 1533  000020fc          	.proc ___main
 1534  000020fc          	.global ___main
 1535  000020fc          	___main:
 1536  000020fc  4be00000	jr	r31
 1537  00002100  54000000	nop
 1538  00002104          	.endproc ___main
 1539                      ;
 1540                      ; Stub functions for DLX traps.
 1541                      ;
 1542                      ; Aaron Sawdey 1996; released to the Public Domain.
 1543                      ;
 1545  00002104          	.proc _printf
 1546  00002104          	.global _printf
 1547  00002104          	_printf:
 1548  00002104  44002001	trap	#0x2001
 1549  00002108  4be00000	jr	r31
 1550  0000210c  54000000	nop
 1551  00002110          	.endproc _printf
 1553  00002110          	.text
 1554  00002110          	.global _etext
 1555  00002110          	_etext:
 1556  00002110          	.align 3
 1557  00002110          	.data
 1558  000030a5          	.global _edata
 1559  000030a5          	_edata:
